…
``` r
#Most number in Williamsburg, Bed-Stuy, Harlem, Bushwick
nyc_airbnb %>%
  group_by(neighbourhood, borough) %>%
  distinct() %>%
  summarize(n_obs = n()) %>%
  filter(n_obs > 100) %>%
  arrange(n_obs)
```

    ## `summarise()` has grouped output by 'neighbourhood'. You can override using the
    ## `.groups` argument.

    ## # A tibble: 54 × 3
    ## # Groups:   neighbourhood [54]
    ##    neighbourhood    borough   n_obs
    ##    <chr>            <chr>     <int>
    ##  1 Woodside         Queens      113
    ##  2 East New York    Brooklyn    118
    ##  3 Elmhurst         Queens      125
    ##  4 Sheepshead Bay   Brooklyn    127
    ##  5 Windsor Terrace  Brooklyn    128
    ##  6 Brooklyn Heights Brooklyn    129
    ##  7 Kensington       Brooklyn    137
    ##  8 Boerum Hill      Brooklyn    153
    ##  9 Jackson Heights  Queens      154
    ## 10 Tribeca          Manhattan   156
    ## # … with 44 more rows
…
    ## Warning: Removed 4671 rows containing missing values (geom_point).

<img src="case_study_files/figure-gfm/unnamed-chunk-6-1.png" width="90%" />

Somewhat fancy plot

``` r
nyc_airbnb %>%
  filter(borough == "Manhattan") %>%
  group_by(neighbourhood) %>%
  summarize(mean_price = mean(price, na.rm = TRUE)) %>%
  arrange(desc(mean_price))
```

    ## # A tibble: 32 × 2
    ##    neighbourhood     mean_price
    ##    <chr>                  <dbl>
    ##  1 Tribeca                 353.
    ##  2 Flatiron District       319.
    ##  3 NoHo                    302.
    ##  4 Greenwich Village       258.
    ##  5 SoHo                    256.
    ##  6 Midtown                 251.
    ##  7 West Village            239.
    ##  8 Chelsea                 233.
    ##  9 Theater District        232.
    ## 10 Battery Park City       221.
    ## # … with 22 more rows
…
