…
weather_df
## # A tibble: 1,095 × 6
##   name           id          date        prcp  tmax  tmin
##   <chr>          <chr>       <date>     <dbl> <dbl> <dbl>
## 1 CentralPark_NY USW00094728 2017-01-01     0   8.9   4.4
## 2 CentralPark_NY USW00094728 2017-01-02    53   5     2.8
## 3 CentralPark_NY USW00094728 2017-01-03   147   6.1   3.9
## 4 CentralPark_NY USW00094728 2017-01-04     0  11.1   1.1
## 5 CentralPark_NY USW00094728 2017-01-05     0   1.1  -2.7
## # … with 1,090 more rows
```
…
